               String QS =    " Select Company.Name,Errector.SlipNo,   "+
                              " Representative.Name,                  "+
                              " VisitorPurpose.Name,                  "+
                              " VisitorStaff.EmpName,                 "+
                              " errector.CardNo,                       "+
                              " errector.InTime,                       "+
                              " errector.OutTime,                      "+
                              " errector.VisitorDate                   "+
                              " from                                  "+
                              " Company,Representative,VisitorPurpose,"+
                              " VisitorStaff,Errector                  "+
                              " where                                 "+
                              " errector.CompanyCode = Company.Code AND "+
                              " errector.RepCode     = Representative.Code AND   "+
                              " errector.purposeCode = VisitorPurpose.Code AND   "+
                              " errector.StaffCode   = VisitorStaff.EmpCode AND  "+
                              " errector.Out         = '0' And                   "+ 
                              " errector.VisitorDate >="+StDate+" And            "+
                              " errector.VisitorDate <="+EndDate+"            "+
                              " order by Errector.VisitorDate ";  
